{
	"tagList": [
		{
			"uuid": "551f213c-0b28-46ec-96f9-4d799a7a37d0",
			"name": "A Tag"
		},
		{
			"uuid": "5b9f602a-a43c-45da-a990-7078ed7072c3",
			"name": "B Tag"
		},
		{
			"uuid": "efb48e30-c7cc-4909-b4c3-5c5e14562400",
			"name": "C Tag"
		},
		{
			"uuid": "8504ecea-e235-45dc-a54f-7586f94c5185",
			"name": "D Tag"
		},
		{
			"uuid": "7d39b249-f900-4ccf-b4eb-f2a80cbdae5d",
			"name": "E Tag"
		},
		{
			"uuid": "9c7ddccc-85bc-449f-a9fa-a35bff58a607",
			"name": "F Tag"
		}
	],
	"totalPages": 6,
	"totalItems": 60,
	"pageSize": 10,
	"currentPage": 1,
	"last": false,
	"first": true,
	"sort": null
}