{
	"userList": [
		{
			"id": 1,
			"fullName": "A Name Surname",
			"userName": "myUserName",
			"email": "myemail@email.com",
			"loginCount": 200,
			"lastLogin": "2011-10-05T14:48:00.000Z",
			"failedLoginCount": 0,
			"lastFailedLogin": "2011-10-05T14:48:00.000Z",
			"directory": "Internal Directory",
			"groups": [
				{
					"uuid": "dbcadc32-c16c-4c95-b6f3-bcc6d26b7744",
					"group_name": "admin"
				},
				{
					"uuid": "0f6f8ebd-8e4e-4cd6-a03d-16b07a1d93db",
					"group_name": "developer"
				}
			],
			"permissions": [
				{
					"uuid": "dc221d15-9dc6-4ebe-84ab-5a8f5edf4c12",
					"permission": "Add, edit, delete API"
				},
				{
					"uuid": "313c2a4e-6eb0-4a6c-b3da-f2b1be08945d",
					"permission": "Add, edit, delete APP"
				},
				{
					"uuid": "416d94e1-9129-4e69-9fea-986d999ec32b",
					"permission": "Add, edit, delete Proxy"
				}
			]
		},
		{
			"id": 2,
			"fullName": "B Name Surname",
			"userName": "myUserName",
			"email": "myemail@email.com",
			"loginCount": 122,
			"lastLogin": "2011-10-05T14:48:00.000Z",
			"failedLoginCount": 12,
			"lastFailedLogin": "2011-10-05T14:48:00.000Z",
			"directory": "Internal Directory",
			"groups": [
				{
					"uuid": "dbcadc32-c16c-4c95-b6f3-bcc6d26b7744",
					"group_name": "admin"
				},
				{
					"uuid": "0f6f8ebd-8e4e-4cd6-a03d-16b07a1d93db",
					"group_name": "developer"
				}
			],
			"permissions": [
				{
					"uuid": "dc221d15-9dc6-4ebe-84ab-5a8f5edf4c12",
					"permission": "Add, edit, delete API"
				},
				{
					"uuid": "313c2a4e-6eb0-4a6c-b3da-f2b1be08945d",
					"permission": "Add, edit, delete APP"
				},
				{
					"uuid": "416d94e1-9129-4e69-9fea-986d999ec32b",
					"permission": "Add, edit, delete Proxy"
				}
			]
		},
		{
			"id": 3,
			"fullName": "C Name Surname",
			"userName": "myUserName",
			"email": "myemail@email.com",
			"loginCount": 89,
			"lastLogin": "2011-10-05T14:48:00.000Z",
			"failedLoginCount": 6,
			"lastFailedLogin": "2011-10-05T14:48:00.000Z",
			"directory": "Internal Directory",
			"groups": [
				{
					"uuid": "dbcadc32-c16c-4c95-b6f3-bcc6d26b7744",
					"group_name": "admin"
				},
				{
					"uuid": "0f6f8ebd-8e4e-4cd6-a03d-16b07a1d93db",
					"group_name": "developer"
				}
			],
			"permissions": [
				{
					"uuid": "dc221d15-9dc6-4ebe-84ab-5a8f5edf4c12",
					"permission": "Add, edit, delete API"
				},
				{
					"uuid": "313c2a4e-6eb0-4a6c-b3da-f2b1be08945d",
					"permission": "Add, edit, delete APP"
				},
				{
					"uuid": "416d94e1-9129-4e69-9fea-986d999ec32b",
					"permission": "Add, edit, delete Proxy"
				}
			]
		},
		{
			"id": 4,
			"fullName": "D Name Surname",
			"userName": "myUserName",
			"email": "myemail@email.com",
			"loginCount": 45,
			"lastLogin": "2011-10-05T14:48:00.000Z",
			"failedLoginCount": 8,
			"lastFailedLogin": "2011-10-05T14:48:00.000Z",
			"directory": "Internal Directory",
			"groups": [
				{
					"uuid": "dbcadc32-c16c-4c95-b6f3-bcc6d26b7744",
					"group_name": "admin"
				},
				{
					"uuid": "0f6f8ebd-8e4e-4cd6-a03d-16b07a1d93db",
					"group_name": "developer"
				}
			],
			"permissions": [
				{
					"uuid": "dc221d15-9dc6-4ebe-84ab-5a8f5edf4c12",
					"permission": "Add, edit, delete API"
				},
				{
					"uuid": "313c2a4e-6eb0-4a6c-b3da-f2b1be08945d",
					"permission": "Add, edit, delete APP"
				},
				{
					"uuid": "416d94e1-9129-4e69-9fea-986d999ec32b",
					"permission": "Add, edit, delete Proxy"
				}
			]
		},
		{
			"id": 5,
			"fullName": "E Name Surname",
			"userName": "myUserName",
			"email": "myemail@email.com",
			"loginCount": 777,
			"lastLogin": "2011-10-05T14:48:00.000Z",
			"failedLoginCount": 8,
			"lastFailedLogin": "2011-10-05T14:48:00.000Z",
			"directory": "Internal Directory",
			"groups": [
				{
					"uuid": "dbcadc32-c16c-4c95-b6f3-bcc6d26b7744",
					"group_name": "admin"
				},
				{
					"uuid": "0f6f8ebd-8e4e-4cd6-a03d-16b07a1d93db",
					"group_name": "developer"
				}
			],
			"permissions": [
				{
					"uuid": "dc221d15-9dc6-4ebe-84ab-5a8f5edf4c12",
					"permission": "Add, edit, delete API"
				},
				{
					"uuid": "313c2a4e-6eb0-4a6c-b3da-f2b1be08945d",
					"permission": "Add, edit, delete APP"
				},
				{
					"uuid": "416d94e1-9129-4e69-9fea-986d999ec32b",
					"permission": "Add, edit, delete Proxy"
				}
			]
		},
		{
			"id": 6,
			"fullName": "F Name Surname",
			"userName": "myUserName",
			"email": "myemail@email.com",
			"loginCount": 54,
			"lastLogin": "2011-10-05T14:48:00.000Z",
			"failedLoginCount": 3,
			"lastFailedLogin": "2011-10-05T14:48:00.000Z",
			"directory": "Internal Directory",
			"groups": [
				{
					"uuid": "dbcadc32-c16c-4c95-b6f3-bcc6d26b7744",
					"group_name": "admin"
				},
				{
					"uuid": "0f6f8ebd-8e4e-4cd6-a03d-16b07a1d93db",
					"group_name": "developer"
				}
			],
			"permissions": [
				{
					"uuid": "dc221d15-9dc6-4ebe-84ab-5a8f5edf4c12",
					"permission": "Add, edit, delete API"
				},
				{
					"uuid": "313c2a4e-6eb0-4a6c-b3da-f2b1be08945d",
					"permission": "Add, edit, delete APP"
				},
				{
					"uuid": "416d94e1-9129-4e69-9fea-986d999ec32b",
					"permission": "Add, edit, delete Proxy"
				}
			]
		}
	],
	"totalPages": 6,
	"totalItems": 60,
	"pageSize": 10,
	"currentPage": 1,
	"last": false,
	"first": true,
	"sort": null
}